ISO-10303-21;
HEADER;
/* Generated by software containing ST-Developer
 * from STEP Tools, Inc. (www.steptools.com) 
 */

FILE_DESCRIPTION(
/* description */ (''),
/* implementation_level */ '2;1');

FILE_NAME(
/* name */ 'Case_SwitchCap v16.step',
/* time_stamp */ '2023-02-01T22:26:32+01:00',
/* author */ (''),
/* organization */ (''),
/* preprocessor_version */ 'ST-DEVELOPER v19.2',
/* originating_system */ 'Autodesk Translation Framework v11.17.0.187',

/* authorisation */ '');

FILE_SCHEMA (('AUTOMOTIVE_DESIGN { 1 0 10303 214 3 1 1 }'));
ENDSEC;

DATA;
#10=MECHANICAL_DESIGN_GEOMETRIC_PRESENTATION_REPRESENTATION('',(#13),#809);
#11=SHAPE_REPRESENTATION_RELATIONSHIP('SRR','None',#816,#12);
#12=ADVANCED_BREP_SHAPE_REPRESENTATION('',(#14),#808);
#13=STYLED_ITEM('',(#826),#14);
#14=MANIFOLD_SOLID_BREP('K\X\F6rper1',#457);
#15=FACE_BOUND('',#85,.T.);
#16=PLANE('',#497);
#17=PLANE('',#500);
#18=PLANE('',#501);
#19=PLANE('',#502);
#20=PLANE('',#505);
#21=PLANE('',#511);
#22=PLANE('',#515);
#23=PLANE('',#519);
#24=PLANE('',#523);
#25=PLANE('',#524);
#26=PLANE('',#525);
#27=TOROIDAL_SURFACE('',#474,1.2,0.6);
#28=TOROIDAL_SURFACE('',#480,1.2,0.6);
#29=TOROIDAL_SURFACE('',#486,1.20000000000001,0.6);
#30=TOROIDAL_SURFACE('',#492,1.20000000000001,0.6);
#31=FACE_OUTER_BOUND('',#58,.T.);
#32=FACE_OUTER_BOUND('',#59,.T.);
#33=FACE_OUTER_BOUND('',#60,.T.);
#34=FACE_OUTER_BOUND('',#61,.T.);
#35=FACE_OUTER_BOUND('',#62,.T.);
#36=FACE_OUTER_BOUND('',#63,.T.);
#37=FACE_OUTER_BOUND('',#64,.T.);
#38=FACE_OUTER_BOUND('',#65,.T.);
#39=FACE_OUTER_BOUND('',#66,.T.);
#40=FACE_OUTER_BOUND('',#67,.T.);
#41=FACE_OUTER_BOUND('',#68,.T.);
#42=FACE_OUTER_BOUND('',#69,.T.);
#43=FACE_OUTER_BOUND('',#70,.T.);
#44=FACE_OUTER_BOUND('',#71,.T.);
#45=FACE_OUTER_BOUND('',#72,.T.);
#46=FACE_OUTER_BOUND('',#73,.T.);
#47=FACE_OUTER_BOUND('',#74,.T.);
#48=FACE_OUTER_BOUND('',#75,.T.);
#49=FACE_OUTER_BOUND('',#76,.T.);
#50=FACE_OUTER_BOUND('',#77,.T.);
#51=FACE_OUTER_BOUND('',#78,.T.);
#52=FACE_OUTER_BOUND('',#79,.T.);
#53=FACE_OUTER_BOUND('',#80,.T.);
#54=FACE_OUTER_BOUND('',#81,.T.);
#55=FACE_OUTER_BOUND('',#82,.T.);
#56=FACE_OUTER_BOUND('',#83,.T.);
#57=FACE_OUTER_BOUND('',#84,.T.);
#58=EDGE_LOOP('',(#290,#291,#292,#293));
#59=EDGE_LOOP('',(#294,#295,#296,#297));
#60=EDGE_LOOP('',(#298,#299,#300,#301));
#61=EDGE_LOOP('',(#302,#303,#304,#305));
#62=EDGE_LOOP('',(#306,#307,#308,#309));
#63=EDGE_LOOP('',(#310,#311,#312,#313));
#64=EDGE_LOOP('',(#314,#315,#316,#317));
#65=EDGE_LOOP('',(#318,#319,#320,#321));
#66=EDGE_LOOP('',(#322,#323,#324,#325));
#67=EDGE_LOOP('',(#326,#327,#328,#329));
#68=EDGE_LOOP('',(#330,#331,#332,#333));
#69=EDGE_LOOP('',(#334,#335,#336,#337));
#70=EDGE_LOOP('',(#338,#339,#340,#341,#342,#343,#344,#345));
#71=EDGE_LOOP('',(#346,#347,#348,#349));
#72=EDGE_LOOP('',(#350,#351,#352,#353));
#73=EDGE_LOOP('',(#354,#355,#356,#357));
#74=EDGE_LOOP('',(#358,#359,#360,#361));
#75=EDGE_LOOP('',(#362,#363,#364,#365));
#76=EDGE_LOOP('',(#366,#367,#368,#369));
#77=EDGE_LOOP('',(#370,#371,#372,#373));
#78=EDGE_LOOP('',(#374,#375,#376,#377));
#79=EDGE_LOOP('',(#378,#379,#380,#381));
#80=EDGE_LOOP('',(#382,#383,#384,#385));
#81=EDGE_LOOP('',(#386,#387,#388,#389));
#82=EDGE_LOOP('',(#390,#391,#392,#393));
#83=EDGE_LOOP('',(#394,#395,#396,#397,#398,#399,#400,#401));
#84=EDGE_LOOP('',(#402,#403,#404,#405,#406,#407,#408,#409));
#85=EDGE_LOOP('',(#410,#411,#412,#413,#414,#415,#416,#417));
#86=LINE('',#680,#122);
#87=LINE('',#683,#123);
#88=LINE('',#694,#124);
#89=LINE('',#695,#125);
#90=LINE('',#706,#126);
#91=LINE('',#707,#127);
#92=LINE('',#718,#128);
#93=LINE('',#719,#129);
#94=LINE('',#725,#130);
#95=LINE('',#728,#131);
#96=LINE('',#731,#132);
#97=LINE('',#732,#133);
#98=LINE('',#735,#134);
#99=LINE('',#739,#135);
#100=LINE('',#740,#136);
#101=LINE('',#744,#137);
#102=LINE('',#746,#138);
#103=LINE('',#747,#139);
#104=LINE('',#750,#140);
#105=LINE('',#753,#141);
#106=LINE('',#761,#142);
#107=LINE('',#764,#143);
#108=LINE('',#767,#144);
#109=LINE('',#769,#145);
#110=LINE('',#770,#146);
#111=LINE('',#776,#147);
#112=LINE('',#779,#148);
#113=LINE('',#781,#149);
#114=LINE('',#782,#150);
#115=LINE('',#788,#151);
#116=LINE('',#791,#152);
#117=LINE('',#793,#153);
#118=LINE('',#794,#154);
#119=LINE('',#800,#155);
#120=LINE('',#802,#156);
#121=LINE('',#803,#157);
#122=VECTOR('',#532,10.);
#123=VECTOR('',#535,10.);
#124=VECTOR('',#548,10.);
#125=VECTOR('',#549,10.);
#126=VECTOR('',#562,10.);
#127=VECTOR('',#563,10.);
#128=VECTOR('',#576,10.);
#129=VECTOR('',#577,10.);
#130=VECTOR('',#586,10.);
#131=VECTOR('',#589,10.);
#132=VECTOR('',#592,10.);
#133=VECTOR('',#593,10.);
#134=VECTOR('',#596,10.);
#135=VECTOR('',#601,10.);
#136=VECTOR('',#602,10.);
#137=VECTOR('',#607,10.);
#138=VECTOR('',#608,10.);
#139=VECTOR('',#609,10.);
#140=VECTOR('',#612,10.);
#141=VECTOR('',#617,10.);
#142=VECTOR('',#626,10.);
#143=VECTOR('',#629,10.);
#144=VECTOR('',#632,10.);
#145=VECTOR('',#633,10.);
#146=VECTOR('',#634,10.);
#147=VECTOR('',#641,10.);
#148=VECTOR('',#644,10.);
#149=VECTOR('',#645,10.);
#150=VECTOR('',#646,10.);
#151=VECTOR('',#653,10.);
#152=VECTOR('',#656,10.);
#153=VECTOR('',#657,10.);
#154=VECTOR('',#658,10.);
#155=VECTOR('',#665,10.);
#156=VECTOR('',#668,10.);
#157=VECTOR('',#669,10.);
#158=CIRCLE('',#472,0.599999999999999);
#159=CIRCLE('',#473,0.600000000000001);
#160=CIRCLE('',#475,0.599999999999999);
#161=CIRCLE('',#476,1.2);
#162=CIRCLE('',#477,1.8);
#163=CIRCLE('',#479,0.6);
#164=CIRCLE('',#481,0.600000000000001);
#165=CIRCLE('',#482,1.2);
#166=CIRCLE('',#483,1.8);
#167=CIRCLE('',#485,0.600000000000001);
#168=CIRCLE('',#487,0.599999999999998);
#169=CIRCLE('',#488,1.20000000000001);
#170=CIRCLE('',#489,1.80000000000001);
#171=CIRCLE('',#491,0.600000000000001);
#172=CIRCLE('',#493,1.20000000000001);
#173=CIRCLE('',#494,1.80000000000001);
#174=CIRCLE('',#496,1.8);
#175=CIRCLE('',#499,1.8);
#176=CIRCLE('',#504,1.80000000000001);
#177=CIRCLE('',#507,1.80000000000001);
#178=CIRCLE('',#509,2.8);
#179=CIRCLE('',#510,2.8);
#180=CIRCLE('',#513,2.8);
#181=CIRCLE('',#514,2.8);
#182=CIRCLE('',#517,2.80000000000001);
#183=CIRCLE('',#518,2.80000000000001);
#184=CIRCLE('',#521,2.80000000000001);
#185=CIRCLE('',#522,2.80000000000001);
#186=VERTEX_POINT('',#676);
#187=VERTEX_POINT('',#677);
#188=VERTEX_POINT('',#679);
#189=VERTEX_POINT('',#681);
#190=VERTEX_POINT('',#685);
#191=VERTEX_POINT('',#686);
#192=VERTEX_POINT('',#691);
#193=VERTEX_POINT('',#692);
#194=VERTEX_POINT('',#697);
#195=VERTEX_POINT('',#698);
#196=VERTEX_POINT('',#703);
#197=VERTEX_POINT('',#704);
#198=VERTEX_POINT('',#709);
#199=VERTEX_POINT('',#710);
#200=VERTEX_POINT('',#715);
#201=VERTEX_POINT('',#716);
#202=VERTEX_POINT('',#724);
#203=VERTEX_POINT('',#726);
#204=VERTEX_POINT('',#730);
#205=VERTEX_POINT('',#734);
#206=VERTEX_POINT('',#738);
#207=VERTEX_POINT('',#743);
#208=VERTEX_POINT('',#745);
#209=VERTEX_POINT('',#749);
#210=VERTEX_POINT('',#757);
#211=VERTEX_POINT('',#758);
#212=VERTEX_POINT('',#760);
#213=VERTEX_POINT('',#762);
#214=VERTEX_POINT('',#766);
#215=VERTEX_POINT('',#768);
#216=VERTEX_POINT('',#772);
#217=VERTEX_POINT('',#774);
#218=VERTEX_POINT('',#778);
#219=VERTEX_POINT('',#780);
#220=VERTEX_POINT('',#784);
#221=VERTEX_POINT('',#786);
#222=VERTEX_POINT('',#790);
#223=VERTEX_POINT('',#792);
#224=VERTEX_POINT('',#796);
#225=VERTEX_POINT('',#798);
#226=EDGE_CURVE('',#186,#187,#158,.T.);
#227=EDGE_CURVE('',#187,#188,#86,.T.);
#228=EDGE_CURVE('',#188,#189,#159,.T.);
#229=EDGE_CURVE('',#189,#186,#87,.T.);
#230=EDGE_CURVE('',#190,#191,#160,.T.);
#231=EDGE_CURVE('',#191,#189,#161,.T.);
#232=EDGE_CURVE('',#188,#190,#162,.T.);
#233=EDGE_CURVE('',#192,#193,#163,.T.);
#234=EDGE_CURVE('',#193,#191,#88,.T.);
#235=EDGE_CURVE('',#190,#192,#89,.T.);
#236=EDGE_CURVE('',#194,#195,#164,.T.);
#237=EDGE_CURVE('',#195,#193,#165,.T.);
#238=EDGE_CURVE('',#192,#194,#166,.T.);
#239=EDGE_CURVE('',#196,#197,#167,.T.);
#240=EDGE_CURVE('',#197,#195,#90,.T.);
#241=EDGE_CURVE('',#194,#196,#91,.T.);
#242=EDGE_CURVE('',#198,#199,#168,.T.);
#243=EDGE_CURVE('',#199,#197,#169,.T.);
#244=EDGE_CURVE('',#196,#198,#170,.T.);
#245=EDGE_CURVE('',#200,#201,#171,.T.);
#246=EDGE_CURVE('',#201,#199,#92,.T.);
#247=EDGE_CURVE('',#198,#200,#93,.T.);
#248=EDGE_CURVE('',#186,#201,#172,.T.);
#249=EDGE_CURVE('',#200,#187,#173,.T.);
#250=EDGE_CURVE('',#202,#192,#94,.T.);
#251=EDGE_CURVE('',#203,#202,#174,.T.);
#252=EDGE_CURVE('',#203,#194,#95,.T.);
#253=EDGE_CURVE('',#204,#190,#96,.T.);
#254=EDGE_CURVE('',#202,#204,#97,.T.);
#255=EDGE_CURVE('',#205,#188,#98,.T.);
#256=EDGE_CURVE('',#204,#205,#175,.T.);
#257=EDGE_CURVE('',#206,#187,#99,.T.);
#258=EDGE_CURVE('',#205,#206,#100,.T.);
#259=EDGE_CURVE('',#207,#198,#101,.T.);
#260=EDGE_CURVE('',#208,#207,#102,.T.);
#261=EDGE_CURVE('',#208,#200,#103,.T.);
#262=EDGE_CURVE('',#209,#196,#104,.T.);
#263=EDGE_CURVE('',#207,#209,#176,.T.);
#264=EDGE_CURVE('',#209,#203,#105,.T.);
#265=EDGE_CURVE('',#206,#208,#177,.T.);
#266=EDGE_CURVE('',#210,#211,#178,.T.);
#267=EDGE_CURVE('',#211,#212,#106,.T.);
#268=EDGE_CURVE('',#213,#212,#179,.T.);
#269=EDGE_CURVE('',#210,#213,#107,.T.);
#270=EDGE_CURVE('',#214,#210,#108,.T.);
#271=EDGE_CURVE('',#215,#213,#109,.T.);
#272=EDGE_CURVE('',#214,#215,#110,.T.);
#273=EDGE_CURVE('',#216,#214,#180,.T.);
#274=EDGE_CURVE('',#217,#215,#181,.T.);
#275=EDGE_CURVE('',#216,#217,#111,.T.);
#276=EDGE_CURVE('',#218,#216,#112,.T.);
#277=EDGE_CURVE('',#219,#217,#113,.T.);
#278=EDGE_CURVE('',#218,#219,#114,.T.);
#279=EDGE_CURVE('',#220,#218,#182,.T.);
#280=EDGE_CURVE('',#221,#219,#183,.T.);
#281=EDGE_CURVE('',#220,#221,#115,.T.);
#282=EDGE_CURVE('',#222,#220,#116,.T.);
#283=EDGE_CURVE('',#223,#221,#117,.T.);
#284=EDGE_CURVE('',#222,#223,#118,.T.);
#285=EDGE_CURVE('',#224,#222,#184,.T.);
#286=EDGE_CURVE('',#225,#223,#185,.T.);
#287=EDGE_CURVE('',#224,#225,#119,.T.);
#288=EDGE_CURVE('',#211,#224,#120,.T.);
#289=EDGE_CURVE('',#212,#225,#121,.T.);
#290=ORIENTED_EDGE('',*,*,#226,.T.);
#291=ORIENTED_EDGE('',*,*,#227,.T.);
#292=ORIENTED_EDGE('',*,*,#228,.T.);
#293=ORIENTED_EDGE('',*,*,#229,.T.);
#294=ORIENTED_EDGE('',*,*,#230,.T.);
#295=ORIENTED_EDGE('',*,*,#231,.T.);
#296=ORIENTED_EDGE('',*,*,#228,.F.);
#297=ORIENTED_EDGE('',*,*,#232,.T.);
#298=ORIENTED_EDGE('',*,*,#233,.T.);
#299=ORIENTED_EDGE('',*,*,#234,.T.);
#300=ORIENTED_EDGE('',*,*,#230,.F.);
#301=ORIENTED_EDGE('',*,*,#235,.T.);
#302=ORIENTED_EDGE('',*,*,#236,.T.);
#303=ORIENTED_EDGE('',*,*,#237,.T.);
#304=ORIENTED_EDGE('',*,*,#233,.F.);
#305=ORIENTED_EDGE('',*,*,#238,.T.);
#306=ORIENTED_EDGE('',*,*,#239,.T.);
#307=ORIENTED_EDGE('',*,*,#240,.T.);
#308=ORIENTED_EDGE('',*,*,#236,.F.);
#309=ORIENTED_EDGE('',*,*,#241,.T.);
#310=ORIENTED_EDGE('',*,*,#242,.T.);
#311=ORIENTED_EDGE('',*,*,#243,.T.);
#312=ORIENTED_EDGE('',*,*,#239,.F.);
#313=ORIENTED_EDGE('',*,*,#244,.T.);
#314=ORIENTED_EDGE('',*,*,#245,.T.);
#315=ORIENTED_EDGE('',*,*,#246,.T.);
#316=ORIENTED_EDGE('',*,*,#242,.F.);
#317=ORIENTED_EDGE('',*,*,#247,.T.);
#318=ORIENTED_EDGE('',*,*,#226,.F.);
#319=ORIENTED_EDGE('',*,*,#248,.T.);
#320=ORIENTED_EDGE('',*,*,#245,.F.);
#321=ORIENTED_EDGE('',*,*,#249,.T.);
#322=ORIENTED_EDGE('',*,*,#238,.F.);
#323=ORIENTED_EDGE('',*,*,#250,.F.);
#324=ORIENTED_EDGE('',*,*,#251,.F.);
#325=ORIENTED_EDGE('',*,*,#252,.T.);
#326=ORIENTED_EDGE('',*,*,#235,.F.);
#327=ORIENTED_EDGE('',*,*,#253,.F.);
#328=ORIENTED_EDGE('',*,*,#254,.F.);
#329=ORIENTED_EDGE('',*,*,#250,.T.);
#330=ORIENTED_EDGE('',*,*,#232,.F.);
#331=ORIENTED_EDGE('',*,*,#255,.F.);
#332=ORIENTED_EDGE('',*,*,#256,.F.);
#333=ORIENTED_EDGE('',*,*,#253,.T.);
#334=ORIENTED_EDGE('',*,*,#227,.F.);
#335=ORIENTED_EDGE('',*,*,#257,.F.);
#336=ORIENTED_EDGE('',*,*,#258,.F.);
#337=ORIENTED_EDGE('',*,*,#255,.T.);
#338=ORIENTED_EDGE('',*,*,#229,.F.);
#339=ORIENTED_EDGE('',*,*,#231,.F.);
#340=ORIENTED_EDGE('',*,*,#234,.F.);
#341=ORIENTED_EDGE('',*,*,#237,.F.);
#342=ORIENTED_EDGE('',*,*,#240,.F.);
#343=ORIENTED_EDGE('',*,*,#243,.F.);
#344=ORIENTED_EDGE('',*,*,#246,.F.);
#345=ORIENTED_EDGE('',*,*,#248,.F.);
#346=ORIENTED_EDGE('',*,*,#247,.F.);
#347=ORIENTED_EDGE('',*,*,#259,.F.);
#348=ORIENTED_EDGE('',*,*,#260,.F.);
#349=ORIENTED_EDGE('',*,*,#261,.T.);
#350=ORIENTED_EDGE('',*,*,#244,.F.);
#351=ORIENTED_EDGE('',*,*,#262,.F.);
#352=ORIENTED_EDGE('',*,*,#263,.F.);
#353=ORIENTED_EDGE('',*,*,#259,.T.);
#354=ORIENTED_EDGE('',*,*,#241,.F.);
#355=ORIENTED_EDGE('',*,*,#252,.F.);
#356=ORIENTED_EDGE('',*,*,#264,.F.);
#357=ORIENTED_EDGE('',*,*,#262,.T.);
#358=ORIENTED_EDGE('',*,*,#249,.F.);
#359=ORIENTED_EDGE('',*,*,#261,.F.);
#360=ORIENTED_EDGE('',*,*,#265,.F.);
#361=ORIENTED_EDGE('',*,*,#257,.T.);
#362=ORIENTED_EDGE('',*,*,#266,.T.);
#363=ORIENTED_EDGE('',*,*,#267,.T.);
#364=ORIENTED_EDGE('',*,*,#268,.F.);
#365=ORIENTED_EDGE('',*,*,#269,.F.);
#366=ORIENTED_EDGE('',*,*,#270,.T.);
#367=ORIENTED_EDGE('',*,*,#269,.T.);
#368=ORIENTED_EDGE('',*,*,#271,.F.);
#369=ORIENTED_EDGE('',*,*,#272,.F.);
#370=ORIENTED_EDGE('',*,*,#273,.T.);
#371=ORIENTED_EDGE('',*,*,#272,.T.);
#372=ORIENTED_EDGE('',*,*,#274,.F.);
#373=ORIENTED_EDGE('',*,*,#275,.F.);
#374=ORIENTED_EDGE('',*,*,#276,.T.);
#375=ORIENTED_EDGE('',*,*,#275,.T.);
#376=ORIENTED_EDGE('',*,*,#277,.F.);
#377=ORIENTED_EDGE('',*,*,#278,.F.);
#378=ORIENTED_EDGE('',*,*,#279,.T.);
#379=ORIENTED_EDGE('',*,*,#278,.T.);
#380=ORIENTED_EDGE('',*,*,#280,.F.);
#381=ORIENTED_EDGE('',*,*,#281,.F.);
#382=ORIENTED_EDGE('',*,*,#282,.T.);
#383=ORIENTED_EDGE('',*,*,#281,.T.);
#384=ORIENTED_EDGE('',*,*,#283,.F.);
#385=ORIENTED_EDGE('',*,*,#284,.F.);
#386=ORIENTED_EDGE('',*,*,#285,.T.);
#387=ORIENTED_EDGE('',*,*,#284,.T.);
#388=ORIENTED_EDGE('',*,*,#286,.F.);
#389=ORIENTED_EDGE('',*,*,#287,.F.);
#390=ORIENTED_EDGE('',*,*,#288,.T.);
#391=ORIENTED_EDGE('',*,*,#287,.T.);
#392=ORIENTED_EDGE('',*,*,#289,.F.);
#393=ORIENTED_EDGE('',*,*,#267,.F.);
#394=ORIENTED_EDGE('',*,*,#289,.T.);
#395=ORIENTED_EDGE('',*,*,#286,.T.);
#396=ORIENTED_EDGE('',*,*,#283,.T.);
#397=ORIENTED_EDGE('',*,*,#280,.T.);
#398=ORIENTED_EDGE('',*,*,#277,.T.);
#399=ORIENTED_EDGE('',*,*,#274,.T.);
#400=ORIENTED_EDGE('',*,*,#271,.T.);
#401=ORIENTED_EDGE('',*,*,#268,.T.);
#402=ORIENTED_EDGE('',*,*,#288,.F.);
#403=ORIENTED_EDGE('',*,*,#266,.F.);
#404=ORIENTED_EDGE('',*,*,#270,.F.);
#405=ORIENTED_EDGE('',*,*,#273,.F.);
#406=ORIENTED_EDGE('',*,*,#276,.F.);
#407=ORIENTED_EDGE('',*,*,#279,.F.);
#408=ORIENTED_EDGE('',*,*,#282,.F.);
#409=ORIENTED_EDGE('',*,*,#285,.F.);
#410=ORIENTED_EDGE('',*,*,#260,.T.);
#411=ORIENTED_EDGE('',*,*,#263,.T.);
#412=ORIENTED_EDGE('',*,*,#264,.T.);
#413=ORIENTED_EDGE('',*,*,#251,.T.);
#414=ORIENTED_EDGE('',*,*,#254,.T.);
#415=ORIENTED_EDGE('',*,*,#256,.T.);
#416=ORIENTED_EDGE('',*,*,#258,.T.);
#417=ORIENTED_EDGE('',*,*,#265,.T.);
#418=CYLINDRICAL_SURFACE('',#471,0.6);
#419=CYLINDRICAL_SURFACE('',#478,0.6);
#420=CYLINDRICAL_SURFACE('',#484,0.6);
#421=CYLINDRICAL_SURFACE('',#490,0.6);
#422=CYLINDRICAL_SURFACE('',#495,1.8);
#423=CYLINDRICAL_SURFACE('',#498,1.8);
#424=CYLINDRICAL_SURFACE('',#503,1.80000000000001);
#425=CYLINDRICAL_SURFACE('',#506,1.80000000000001);
#426=CYLINDRICAL_SURFACE('',#508,2.8);
#427=CYLINDRICAL_SURFACE('',#512,2.8);
#428=CYLINDRICAL_SURFACE('',#516,2.80000000000001);
#429=CYLINDRICAL_SURFACE('',#520,2.80000000000001);
#430=ADVANCED_FACE('',(#31),#418,.T.);
#431=ADVANCED_FACE('',(#32),#27,.T.);
#432=ADVANCED_FACE('',(#33),#419,.T.);
#433=ADVANCED_FACE('',(#34),#28,.T.);
#434=ADVANCED_FACE('',(#35),#420,.T.);
#435=ADVANCED_FACE('',(#36),#29,.T.);
#436=ADVANCED_FACE('',(#37),#421,.T.);
#437=ADVANCED_FACE('',(#38),#30,.T.);
#438=ADVANCED_FACE('',(#39),#422,.T.);
#439=ADVANCED_FACE('',(#40),#16,.T.);
#440=ADVANCED_FACE('',(#41),#423,.T.);
#441=ADVANCED_FACE('',(#42),#17,.T.);
#442=ADVANCED_FACE('',(#43),#18,.F.);
#443=ADVANCED_FACE('',(#44),#19,.T.);
#444=ADVANCED_FACE('',(#45),#424,.T.);
#445=ADVANCED_FACE('',(#46),#20,.T.);
#446=ADVANCED_FACE('',(#47),#425,.T.);
#447=ADVANCED_FACE('',(#48),#426,.T.);
#448=ADVANCED_FACE('',(#49),#21,.T.);
#449=ADVANCED_FACE('',(#50),#427,.T.);
#450=ADVANCED_FACE('',(#51),#22,.T.);
#451=ADVANCED_FACE('',(#52),#428,.T.);
#452=ADVANCED_FACE('',(#53),#23,.T.);
#453=ADVANCED_FACE('',(#54),#429,.T.);
#454=ADVANCED_FACE('',(#55),#24,.T.);
#455=ADVANCED_FACE('',(#56),#25,.T.);
#456=ADVANCED_FACE('',(#57,#15),#26,.F.);
#457=CLOSED_SHELL('',(#430,#431,#432,#433,#434,#435,#436,#437,#438,#439,
#440,#441,#442,#443,#444,#445,#446,#447,#448,#449,#450,#451,#452,#453,#454,
#455,#456));
#458=DERIVED_UNIT_ELEMENT(#460,1.);
#459=DERIVED_UNIT_ELEMENT(#811,-3.);
#460=(
MASS_UNIT()
NAMED_UNIT(*)
SI_UNIT(.KILO.,.GRAM.)
);
#461=DERIVED_UNIT((#458,#459));
#462=MEASURE_REPRESENTATION_ITEM('density measure',
POSITIVE_RATIO_MEASURE(7850.),#461);
#463=PROPERTY_DEFINITION_REPRESENTATION(#468,#465);
#464=PROPERTY_DEFINITION_REPRESENTATION(#469,#466);
#465=REPRESENTATION('material name',(#467),#808);
#466=REPRESENTATION('density',(#462),#808);
#467=DESCRIPTIVE_REPRESENTATION_ITEM('Stahl','Stahl');
#468=PROPERTY_DEFINITION('material property','material name',#818);
#469=PROPERTY_DEFINITION('material property','density of part',#818);
#470=AXIS2_PLACEMENT_3D('placement',#674,#526,#527);
#471=AXIS2_PLACEMENT_3D('',#675,#528,#529);
#472=AXIS2_PLACEMENT_3D('',#678,#530,#531);
#473=AXIS2_PLACEMENT_3D('',#682,#533,#534);
#474=AXIS2_PLACEMENT_3D('',#684,#536,#537);
#475=AXIS2_PLACEMENT_3D('',#687,#538,#539);
#476=AXIS2_PLACEMENT_3D('',#688,#540,#541);
#477=AXIS2_PLACEMENT_3D('',#689,#542,#543);
#478=AXIS2_PLACEMENT_3D('',#690,#544,#545);
#479=AXIS2_PLACEMENT_3D('',#693,#546,#547);
#480=AXIS2_PLACEMENT_3D('',#696,#550,#551);
#481=AXIS2_PLACEMENT_3D('',#699,#552,#553);
#482=AXIS2_PLACEMENT_3D('',#700,#554,#555);
#483=AXIS2_PLACEMENT_3D('',#701,#556,#557);
#484=AXIS2_PLACEMENT_3D('',#702,#558,#559);
#485=AXIS2_PLACEMENT_3D('',#705,#560,#561);
#486=AXIS2_PLACEMENT_3D('',#708,#564,#565);
#487=AXIS2_PLACEMENT_3D('',#711,#566,#567);
#488=AXIS2_PLACEMENT_3D('',#712,#568,#569);
#489=AXIS2_PLACEMENT_3D('',#713,#570,#571);
#490=AXIS2_PLACEMENT_3D('',#714,#572,#573);
#491=AXIS2_PLACEMENT_3D('',#717,#574,#575);
#492=AXIS2_PLACEMENT_3D('',#720,#578,#579);
#493=AXIS2_PLACEMENT_3D('',#721,#580,#581);
#494=AXIS2_PLACEMENT_3D('',#722,#582,#583);
#495=AXIS2_PLACEMENT_3D('',#723,#584,#585);
#496=AXIS2_PLACEMENT_3D('',#727,#587,#588);
#497=AXIS2_PLACEMENT_3D('',#729,#590,#591);
#498=AXIS2_PLACEMENT_3D('',#733,#594,#595);
#499=AXIS2_PLACEMENT_3D('',#736,#597,#598);
#500=AXIS2_PLACEMENT_3D('',#737,#599,#600);
#501=AXIS2_PLACEMENT_3D('',#741,#603,#604);
#502=AXIS2_PLACEMENT_3D('',#742,#605,#606);
#503=AXIS2_PLACEMENT_3D('',#748,#610,#611);
#504=AXIS2_PLACEMENT_3D('',#751,#613,#614);
#505=AXIS2_PLACEMENT_3D('',#752,#615,#616);
#506=AXIS2_PLACEMENT_3D('',#754,#618,#619);
#507=AXIS2_PLACEMENT_3D('',#755,#620,#621);
#508=AXIS2_PLACEMENT_3D('',#756,#622,#623);
#509=AXIS2_PLACEMENT_3D('',#759,#624,#625);
#510=AXIS2_PLACEMENT_3D('',#763,#627,#628);
#511=AXIS2_PLACEMENT_3D('',#765,#630,#631);
#512=AXIS2_PLACEMENT_3D('',#771,#635,#636);
#513=AXIS2_PLACEMENT_3D('',#773,#637,#638);
#514=AXIS2_PLACEMENT_3D('',#775,#639,#640);
#515=AXIS2_PLACEMENT_3D('',#777,#642,#643);
#516=AXIS2_PLACEMENT_3D('',#783,#647,#648);
#517=AXIS2_PLACEMENT_3D('',#785,#649,#650);
#518=AXIS2_PLACEMENT_3D('',#787,#651,#652);
#519=AXIS2_PLACEMENT_3D('',#789,#654,#655);
#520=AXIS2_PLACEMENT_3D('',#795,#659,#660);
#521=AXIS2_PLACEMENT_3D('',#797,#661,#662);
#522=AXIS2_PLACEMENT_3D('',#799,#663,#664);
#523=AXIS2_PLACEMENT_3D('',#801,#666,#667);
#524=AXIS2_PLACEMENT_3D('',#804,#670,#671);
#525=AXIS2_PLACEMENT_3D('',#805,#672,#673);
#526=DIRECTION('axis',(0.,0.,1.));
#527=DIRECTION('refdir',(1.,0.,0.));
#528=DIRECTION('center_axis',(1.,5.55111512312578E-16,0.));
#529=DIRECTION('ref_axis',(0.,-0.70710678118655,0.707106781186545));
#530=DIRECTION('center_axis',(1.,0.,0.));
#531=DIRECTION('ref_axis',(0.,0.,1.));
#532=DIRECTION('',(1.,5.55111512312578E-16,0.));
#533=DIRECTION('center_axis',(-1.,0.,0.));
#534=DIRECTION('ref_axis',(0.,-1.,0.));
#535=DIRECTION('',(-1.,-5.55111512312578E-16,0.));
#536=DIRECTION('center_axis',(0.,0.,1.));
#537=DIRECTION('ref_axis',(1.,0.,0.));
#538=DIRECTION('center_axis',(0.,-1.,0.));
#539=DIRECTION('ref_axis',(1.,0.,0.));
#540=DIRECTION('center_axis',(0.,0.,-1.));
#541=DIRECTION('ref_axis',(0.707106781186548,-0.707106781186547,0.));
#542=DIRECTION('center_axis',(0.,0.,1.));
#543=DIRECTION('ref_axis',(0.707106781186548,-0.707106781186547,0.));
#544=DIRECTION('center_axis',(1.11022302462516E-15,1.,0.));
#545=DIRECTION('ref_axis',(0.707106781186547,0.,0.707106781186547));
#546=DIRECTION('center_axis',(0.,-1.,0.));
#547=DIRECTION('ref_axis',(1.,0.,0.));
#548=DIRECTION('',(-1.11022302462516E-15,-1.,0.));
#549=DIRECTION('',(1.11022302462516E-15,1.,0.));
#550=DIRECTION('center_axis',(0.,0.,1.));
#551=DIRECTION('ref_axis',(1.,0.,0.));
#552=DIRECTION('center_axis',(1.,0.,0.));
#553=DIRECTION('ref_axis',(0.,1.,0.));
#554=DIRECTION('center_axis',(0.,0.,-1.));
#555=DIRECTION('ref_axis',(0.707106781186548,0.707106781186548,0.));
#556=DIRECTION('center_axis',(0.,0.,1.));
#557=DIRECTION('ref_axis',(0.707106781186548,0.707106781186548,0.));
#558=DIRECTION('center_axis',(-1.,5.55111512312578E-16,0.));
#559=DIRECTION('ref_axis',(0.,0.70710678118655,0.707106781186545));
#560=DIRECTION('center_axis',(1.,0.,0.));
#561=DIRECTION('ref_axis',(0.,1.,0.));
#562=DIRECTION('',(1.,-5.55111512312578E-16,0.));
#563=DIRECTION('',(-1.,5.55111512312578E-16,0.));
#564=DIRECTION('center_axis',(0.,0.,1.));
#565=DIRECTION('ref_axis',(1.,0.,0.));
#566=DIRECTION('center_axis',(0.,1.,0.));
#567=DIRECTION('ref_axis',(-1.,0.,0.));
#568=DIRECTION('center_axis',(0.,0.,-1.));
#569=DIRECTION('ref_axis',(-0.707106781186548,0.707106781186547,0.));
#570=DIRECTION('center_axis',(0.,0.,1.));
#571=DIRECTION('ref_axis',(-0.707106781186548,0.707106781186547,0.));
#572=DIRECTION('center_axis',(1.11022302462516E-15,-1.,0.));
#573=DIRECTION('ref_axis',(-0.707106781186547,0.,0.707106781186547));
#574=DIRECTION('center_axis',(0.,1.,0.));
#575=DIRECTION('ref_axis',(-1.,0.,0.));
#576=DIRECTION('',(-1.11022302462516E-15,1.,0.));
#577=DIRECTION('',(1.11022302462516E-15,-1.,0.));
#578=DIRECTION('center_axis',(0.,0.,1.));
#579=DIRECTION('ref_axis',(1.,0.,0.));
#580=DIRECTION('center_axis',(0.,0.,-1.));
#581=DIRECTION('ref_axis',(-0.707106781186547,-0.707106781186547,0.));
#582=DIRECTION('center_axis',(0.,0.,1.));
#583=DIRECTION('ref_axis',(-0.707106781186547,-0.707106781186547,0.));
#584=DIRECTION('center_axis',(0.,0.,1.));
#585=DIRECTION('ref_axis',(0.,1.,0.));
#586=DIRECTION('',(0.,0.,1.));
#587=DIRECTION('center_axis',(0.,0.,-1.));
#588=DIRECTION('ref_axis',(0.,1.,0.));
#589=DIRECTION('',(0.,0.,1.));
#590=DIRECTION('center_axis',(1.,-1.11022302462516E-15,0.));
#591=DIRECTION('ref_axis',(1.11022302462516E-15,1.,0.));
#592=DIRECTION('',(0.,0.,1.));
#593=DIRECTION('',(-1.11022302462516E-15,-1.,0.));
#594=DIRECTION('center_axis',(0.,0.,1.));
#595=DIRECTION('ref_axis',(1.,0.,0.));
#596=DIRECTION('',(0.,0.,1.));
#597=DIRECTION('center_axis',(0.,0.,-1.));
#598=DIRECTION('ref_axis',(1.,0.,0.));
#599=DIRECTION('center_axis',(5.55111512312578E-16,-1.,0.));
#600=DIRECTION('ref_axis',(1.,5.55111512312578E-16,0.));
#601=DIRECTION('',(0.,0.,1.));
#602=DIRECTION('',(-1.,-5.55111512312578E-16,0.));
#603=DIRECTION('center_axis',(0.,0.,-1.));
#604=DIRECTION('ref_axis',(1.,0.,0.));
#605=DIRECTION('center_axis',(-1.,-1.11022302462516E-15,0.));
#606=DIRECTION('ref_axis',(1.11022302462516E-15,-1.,0.));
#607=DIRECTION('',(0.,0.,1.));
#608=DIRECTION('',(-1.11022302462516E-15,1.,0.));
#609=DIRECTION('',(0.,0.,1.));
#610=DIRECTION('center_axis',(0.,0.,1.));
#611=DIRECTION('ref_axis',(-1.,2.46716227694478E-15,0.));
#612=DIRECTION('',(0.,0.,1.));
#613=DIRECTION('center_axis',(0.,0.,-1.));
#614=DIRECTION('ref_axis',(-1.,2.46716227694478E-15,0.));
#615=DIRECTION('center_axis',(5.55111512312578E-16,1.,0.));
#616=DIRECTION('ref_axis',(-1.,5.55111512312578E-16,0.));
#617=DIRECTION('',(1.,-5.55111512312578E-16,0.));
#618=DIRECTION('center_axis',(0.,0.,1.));
#619=DIRECTION('ref_axis',(-3.70074341541718E-15,-1.,0.));
#620=DIRECTION('center_axis',(0.,0.,-1.));
#621=DIRECTION('ref_axis',(-3.70074341541718E-15,-1.,0.));
#622=DIRECTION('center_axis',(0.,0.,-1.));
#623=DIRECTION('ref_axis',(1.,0.,0.));
#624=DIRECTION('center_axis',(0.,0.,-1.));
#625=DIRECTION('ref_axis',(1.,0.,0.));
#626=DIRECTION('',(0.,0.,-1.));
#627=DIRECTION('center_axis',(0.,0.,-1.));
#628=DIRECTION('ref_axis',(1.,0.,0.));
#629=DIRECTION('',(0.,0.,-1.));
#630=DIRECTION('center_axis',(1.,-1.11022302462516E-15,0.));
#631=DIRECTION('ref_axis',(-1.11022302462516E-15,-1.,0.));
#632=DIRECTION('',(-1.11022302462516E-15,-1.,0.));
#633=DIRECTION('',(-1.11022302462516E-15,-1.,0.));
#634=DIRECTION('',(0.,0.,-1.));
#635=DIRECTION('center_axis',(0.,0.,-1.));
#636=DIRECTION('ref_axis',(0.,1.,0.));
#637=DIRECTION('center_axis',(0.,0.,-1.));
#638=DIRECTION('ref_axis',(0.,1.,0.));
#639=DIRECTION('center_axis',(0.,0.,-1.));
#640=DIRECTION('ref_axis',(0.,1.,0.));
#641=DIRECTION('',(0.,0.,-1.));
#642=DIRECTION('center_axis',(0.,1.,0.));
#643=DIRECTION('ref_axis',(1.,0.,0.));
#644=DIRECTION('',(1.,0.,0.));
#645=DIRECTION('',(1.,0.,0.));
#646=DIRECTION('',(0.,0.,-1.));
#647=DIRECTION('center_axis',(0.,0.,-1.));
#648=DIRECTION('ref_axis',(-1.,1.58603289232165E-15,0.));
#649=DIRECTION('center_axis',(0.,0.,-1.));
#650=DIRECTION('ref_axis',(-1.,1.58603289232165E-15,0.));
#651=DIRECTION('center_axis',(0.,0.,-1.));
#652=DIRECTION('ref_axis',(-1.,1.58603289232165E-15,0.));
#653=DIRECTION('',(0.,0.,-1.));
#654=DIRECTION('center_axis',(-1.,-1.11022302462516E-15,0.));
#655=DIRECTION('ref_axis',(-1.11022302462516E-15,1.,0.));
#656=DIRECTION('',(-1.11022302462516E-15,1.,0.));
#657=DIRECTION('',(-1.11022302462516E-15,1.,0.));
#658=DIRECTION('',(0.,0.,-1.));
#659=DIRECTION('center_axis',(0.,0.,-1.));
#660=DIRECTION('ref_axis',(-2.37904933848247E-15,-1.,0.));
#661=DIRECTION('center_axis',(0.,0.,-1.));
#662=DIRECTION('ref_axis',(-2.37904933848247E-15,-1.,0.));
#663=DIRECTION('center_axis',(0.,0.,-1.));
#664=DIRECTION('ref_axis',(-2.37904933848247E-15,-1.,0.));
#665=DIRECTION('',(0.,0.,-1.));
#666=DIRECTION('center_axis',(5.55111512312578E-16,-1.,0.));
#667=DIRECTION('ref_axis',(-1.,-5.55111512312578E-16,0.));
#668=DIRECTION('',(-1.,-5.55111512312578E-16,0.));
#669=DIRECTION('',(-1.,-5.55111512312578E-16,0.));
#670=DIRECTION('center_axis',(0.,0.,-1.));
#671=DIRECTION('ref_axis',(1.,0.,0.));
#672=DIRECTION('center_axis',(0.,0.,-1.));
#673=DIRECTION('ref_axis',(1.,0.,0.));
#674=CARTESIAN_POINT('',(0.,0.,0.));
#675=CARTESIAN_POINT('Origin',(-11.9999897154227,-28.7000115880974,9.1));
#676=CARTESIAN_POINT('',(-13.9999897154227,-28.7000115880974,9.7));
#677=CARTESIAN_POINT('',(-13.9999897154227,-29.3000115880974,9.1));
#678=CARTESIAN_POINT('Origin',(-13.9999897154227,-28.7000115880974,9.1));
#679=CARTESIAN_POINT('',(-5.99998971542271,-29.3000115880974,9.1));
#680=CARTESIAN_POINT('',(-11.9999897154227,-29.3000115880974,9.1));
#681=CARTESIAN_POINT('',(-5.99998971542271,-28.7000115880974,9.7));
#682=CARTESIAN_POINT('Origin',(-5.99998971542271,-28.7000115880974,9.1));
#683=CARTESIAN_POINT('',(-11.9999897154227,-28.7000115880974,9.7));
#684=CARTESIAN_POINT('Origin',(-5.99998971542271,-27.5000115880974,9.1));
#685=CARTESIAN_POINT('',(-4.19998971542271,-27.5000115880974,9.1));
#686=CARTESIAN_POINT('',(-4.79998971542271,-27.5000115880974,9.7));
#687=CARTESIAN_POINT('Origin',(-4.79998971542271,-27.5000115880974,9.1));
#688=CARTESIAN_POINT('Origin',(-5.99998971542271,-27.5000115880974,9.7));
#689=CARTESIAN_POINT('Origin',(-5.99998971542271,-27.5000115880974,9.1));
#690=CARTESIAN_POINT('Origin',(-4.79998971542271,-27.0000115880974,9.1));
#691=CARTESIAN_POINT('',(-4.19998971542271,-25.5000115880975,9.1));
#692=CARTESIAN_POINT('',(-4.79998971542271,-25.5000115880975,9.7));
#693=CARTESIAN_POINT('Origin',(-4.79998971542271,-25.5000115880975,9.1));
#694=CARTESIAN_POINT('',(-4.79998971542271,-27.0000115880974,9.7));
#695=CARTESIAN_POINT('',(-4.19998971542271,-27.0000115880974,9.1));
#696=CARTESIAN_POINT('Origin',(-5.99998971542271,-25.5000115880975,9.1));
#697=CARTESIAN_POINT('',(-5.99998971542271,-23.7000115880974,9.1));
#698=CARTESIAN_POINT('',(-5.99998971542271,-24.3000115880974,9.7));
#699=CARTESIAN_POINT('Origin',(-5.99998971542271,-24.3000115880974,9.1));
#700=CARTESIAN_POINT('Origin',(-5.99998971542271,-25.5000115880975,9.7));
#701=CARTESIAN_POINT('Origin',(-5.99998971542271,-25.5000115880975,9.1));
#702=CARTESIAN_POINT('Origin',(-7.99998971542271,-24.3000115880974,9.1));
#703=CARTESIAN_POINT('',(-13.9999897154227,-23.7000115880974,9.1));
#704=CARTESIAN_POINT('',(-13.9999897154227,-24.3000115880974,9.7));
#705=CARTESIAN_POINT('Origin',(-13.9999897154227,-24.3000115880974,9.1));
#706=CARTESIAN_POINT('',(-7.99998971542271,-24.3000115880974,9.7));
#707=CARTESIAN_POINT('',(-7.99998971542271,-23.7000115880974,9.1));
#708=CARTESIAN_POINT('Origin',(-13.9999897154227,-25.5000115880975,9.1));
#709=CARTESIAN_POINT('',(-15.7999897154227,-25.5000115880975,9.1));
#710=CARTESIAN_POINT('',(-15.1999897154227,-25.5000115880975,9.7));
#711=CARTESIAN_POINT('Origin',(-15.1999897154227,-25.5000115880975,9.1));
#712=CARTESIAN_POINT('Origin',(-13.9999897154227,-25.5000115880975,9.7));
#713=CARTESIAN_POINT('Origin',(-13.9999897154227,-25.5000115880975,9.1));
#714=CARTESIAN_POINT('Origin',(-15.1999897154227,-26.0000115880975,9.1));
#715=CARTESIAN_POINT('',(-15.7999897154227,-27.5000115880974,9.1));
#716=CARTESIAN_POINT('',(-15.1999897154227,-27.5000115880974,9.7));
#717=CARTESIAN_POINT('Origin',(-15.1999897154227,-27.5000115880974,9.1));
#718=CARTESIAN_POINT('',(-15.1999897154227,-26.0000115880975,9.7));
#719=CARTESIAN_POINT('',(-15.7999897154227,-26.0000115880975,9.1));
#720=CARTESIAN_POINT('Origin',(-13.9999897154227,-27.5000115880974,9.1));
#721=CARTESIAN_POINT('Origin',(-13.9999897154227,-27.5000115880974,9.7));
#722=CARTESIAN_POINT('Origin',(-13.9999897154227,-27.5000115880974,9.1));
#723=CARTESIAN_POINT('Origin',(-5.99998971542271,-25.5000115880975,6.7));
#724=CARTESIAN_POINT('',(-4.19998971542271,-25.5000115880975,6.7));
#725=CARTESIAN_POINT('',(-4.19998971542271,-25.5000115880975,6.7));
#726=CARTESIAN_POINT('',(-5.99998971542271,-23.7000115880974,6.7));
#727=CARTESIAN_POINT('Origin',(-5.99998971542271,-25.5000115880975,6.7));
#728=CARTESIAN_POINT('',(-5.99998971542271,-23.7000115880974,6.7));
#729=CARTESIAN_POINT('Origin',(-4.19998971542271,-27.5000115880974,6.7));
#730=CARTESIAN_POINT('',(-4.19998971542271,-27.5000115880974,6.7));
#731=CARTESIAN_POINT('',(-4.19998971542271,-27.5000115880974,6.7));
#732=CARTESIAN_POINT('',(-4.19998971542271,-27.0000115880974,6.7));
#733=CARTESIAN_POINT('Origin',(-5.99998971542271,-27.5000115880974,6.7));
#734=CARTESIAN_POINT('',(-5.99998971542271,-29.3000115880974,6.7));
#735=CARTESIAN_POINT('',(-5.99998971542271,-29.3000115880974,6.7));
#736=CARTESIAN_POINT('Origin',(-5.99998971542271,-27.5000115880974,6.7));
#737=CARTESIAN_POINT('Origin',(-13.9999897154227,-29.3000115880974,6.7));
#738=CARTESIAN_POINT('',(-13.9999897154227,-29.3000115880974,6.7));
#739=CARTESIAN_POINT('',(-13.9999897154227,-29.3000115880974,6.7));
#740=CARTESIAN_POINT('',(-11.9999897154227,-29.3000115880974,6.7));
#741=CARTESIAN_POINT('Origin',(-9.99998971542271,-26.5000115880974,9.7));
#742=CARTESIAN_POINT('Origin',(-15.7999897154227,-25.5000115880975,6.7));
#743=CARTESIAN_POINT('',(-15.7999897154227,-25.5000115880975,6.7));
#744=CARTESIAN_POINT('',(-15.7999897154227,-25.5000115880975,6.7));
#745=CARTESIAN_POINT('',(-15.7999897154227,-27.5000115880974,6.7));
#746=CARTESIAN_POINT('',(-15.7999897154227,-26.0000115880975,6.7));
#747=CARTESIAN_POINT('',(-15.7999897154227,-27.5000115880974,6.7));
#748=CARTESIAN_POINT('Origin',(-13.9999897154227,-25.5000115880975,6.7));
#749=CARTESIAN_POINT('',(-13.9999897154227,-23.7000115880974,6.7));
#750=CARTESIAN_POINT('',(-13.9999897154227,-23.7000115880974,6.7));
#751=CARTESIAN_POINT('Origin',(-13.9999897154227,-25.5000115880975,6.7));
#752=CARTESIAN_POINT('Origin',(-5.99998971542271,-23.7000115880974,6.7));
#753=CARTESIAN_POINT('',(-7.99998971542271,-23.7000115880974,6.7));
#754=CARTESIAN_POINT('Origin',(-13.9999897154227,-27.5000115880974,6.7));
#755=CARTESIAN_POINT('Origin',(-13.9999897154227,-27.5000115880974,6.7));
#756=CARTESIAN_POINT('Origin',(-5.99998971542271,-27.5000115880974,6.7));
#757=CARTESIAN_POINT('',(-3.19998971542271,-27.5000115880974,6.7));
#758=CARTESIAN_POINT('',(-5.99998971542271,-30.3000115880974,6.7));
#759=CARTESIAN_POINT('Origin',(-5.99998971542271,-27.5000115880974,6.7));
#760=CARTESIAN_POINT('',(-5.99998971542271,-30.3000115880974,6.));
#761=CARTESIAN_POINT('',(-5.99998971542271,-30.3000115880974,6.7));
#762=CARTESIAN_POINT('',(-3.19998971542271,-27.5000115880974,6.));
#763=CARTESIAN_POINT('Origin',(-5.99998971542271,-27.5000115880974,6.));
#764=CARTESIAN_POINT('',(-3.19998971542271,-27.5000115880974,6.7));
#765=CARTESIAN_POINT('Origin',(-3.19998971542271,-25.5000115880975,6.7));
#766=CARTESIAN_POINT('',(-3.19998971542271,-25.5000115880975,6.7));
#767=CARTESIAN_POINT('',(-3.19998971542271,-25.5000115880975,6.7));
#768=CARTESIAN_POINT('',(-3.19998971542271,-25.5000115880975,6.));
#769=CARTESIAN_POINT('',(-3.19998971542271,-25.5000115880975,6.));
#770=CARTESIAN_POINT('',(-3.19998971542271,-25.5000115880975,6.7));
#771=CARTESIAN_POINT('Origin',(-5.99998971542271,-25.5000115880975,6.7));
#772=CARTESIAN_POINT('',(-5.99998971542271,-22.7000115880974,6.7));
#773=CARTESIAN_POINT('Origin',(-5.99998971542271,-25.5000115880975,6.7));
#774=CARTESIAN_POINT('',(-5.99998971542271,-22.7000115880974,6.));
#775=CARTESIAN_POINT('Origin',(-5.99998971542271,-25.5000115880975,6.));
#776=CARTESIAN_POINT('',(-5.99998971542271,-22.7000115880974,6.7));
#777=CARTESIAN_POINT('Origin',(-13.9999897154227,-22.7000115880974,6.7));
#778=CARTESIAN_POINT('',(-13.9999897154227,-22.7000115880974,6.7));
#779=CARTESIAN_POINT('',(-13.9999897154227,-22.7000115880974,6.7));
#780=CARTESIAN_POINT('',(-13.9999897154227,-22.7000115880974,6.));
#781=CARTESIAN_POINT('',(-13.9999897154227,-22.7000115880974,6.));
#782=CARTESIAN_POINT('',(-13.9999897154227,-22.7000115880974,6.7));
#783=CARTESIAN_POINT('Origin',(-13.9999897154227,-25.5000115880975,6.7));
#784=CARTESIAN_POINT('',(-16.7999897154227,-25.5000115880975,6.7));
#785=CARTESIAN_POINT('Origin',(-13.9999897154227,-25.5000115880975,6.7));
#786=CARTESIAN_POINT('',(-16.7999897154227,-25.5000115880975,6.));
#787=CARTESIAN_POINT('Origin',(-13.9999897154227,-25.5000115880975,6.));
#788=CARTESIAN_POINT('',(-16.7999897154227,-25.5000115880975,6.7));
#789=CARTESIAN_POINT('Origin',(-16.7999897154227,-27.5000115880975,6.7));
#790=CARTESIAN_POINT('',(-16.7999897154227,-27.5000115880975,6.7));
#791=CARTESIAN_POINT('',(-16.7999897154227,-27.5000115880975,6.7));
#792=CARTESIAN_POINT('',(-16.7999897154227,-27.5000115880975,6.));
#793=CARTESIAN_POINT('',(-16.7999897154227,-27.5000115880975,6.));
#794=CARTESIAN_POINT('',(-16.7999897154227,-27.5000115880975,6.7));
#795=CARTESIAN_POINT('Origin',(-13.9999897154227,-27.5000115880974,6.7));
#796=CARTESIAN_POINT('',(-13.9999897154227,-30.3000115880974,6.7));
#797=CARTESIAN_POINT('Origin',(-13.9999897154227,-27.5000115880974,6.7));
#798=CARTESIAN_POINT('',(-13.9999897154227,-30.3000115880974,6.));
#799=CARTESIAN_POINT('Origin',(-13.9999897154227,-27.5000115880974,6.));
#800=CARTESIAN_POINT('',(-13.9999897154227,-30.3000115880974,6.7));
#801=CARTESIAN_POINT('Origin',(-5.99998971542271,-30.3000115880974,6.7));
#802=CARTESIAN_POINT('',(-5.99998971542271,-30.3000115880974,6.7));
#803=CARTESIAN_POINT('',(-5.99998971542271,-30.3000115880974,6.));
#804=CARTESIAN_POINT('Origin',(-9.99998971542271,-26.5000115880974,6.));
#805=CARTESIAN_POINT('Origin',(-9.99998971542271,-26.5000115880974,6.7));
#806=UNCERTAINTY_MEASURE_WITH_UNIT(LENGTH_MEASURE(0.01),#810,
'DISTANCE_ACCURACY_VALUE',
'Maximum model space distance between geometric entities at asserted c
onnectivities');
#807=UNCERTAINTY_MEASURE_WITH_UNIT(LENGTH_MEASURE(0.01),#810,
'DISTANCE_ACCURACY_VALUE',
'Maximum model space distance between geometric entities at asserted c
onnectivities');
#808=(
GEOMETRIC_REPRESENTATION_CONTEXT(3)
GLOBAL_UNCERTAINTY_ASSIGNED_CONTEXT((#806))
GLOBAL_UNIT_ASSIGNED_CONTEXT((#810,#812,#813))
REPRESENTATION_CONTEXT('','3D')
);
#809=(
GEOMETRIC_REPRESENTATION_CONTEXT(3)
GLOBAL_UNCERTAINTY_ASSIGNED_CONTEXT((#807))
GLOBAL_UNIT_ASSIGNED_CONTEXT((#810,#812,#813))
REPRESENTATION_CONTEXT('','3D')
);
#810=(
LENGTH_UNIT()
NAMED_UNIT(*)
SI_UNIT(.MILLI.,.METRE.)
);
#811=(
LENGTH_UNIT()
NAMED_UNIT(*)
SI_UNIT($,.METRE.)
);
#812=(
NAMED_UNIT(*)
PLANE_ANGLE_UNIT()
SI_UNIT($,.RADIAN.)
);
#813=(
NAMED_UNIT(*)
SI_UNIT($,.STERADIAN.)
SOLID_ANGLE_UNIT()
);
#814=SHAPE_DEFINITION_REPRESENTATION(#815,#816);
#815=PRODUCT_DEFINITION_SHAPE('',$,#818);
#816=SHAPE_REPRESENTATION('',(#470),#808);
#817=PRODUCT_DEFINITION_CONTEXT('part definition',#822,'design');
#818=PRODUCT_DEFINITION('Case_SwitchCap','Case_SwitchCap v1',#819,#817);
#819=PRODUCT_DEFINITION_FORMATION('',$,#824);
#820=PRODUCT_RELATED_PRODUCT_CATEGORY('Case_SwitchCap v1',
'Case_SwitchCap v1',(#824));
#821=APPLICATION_PROTOCOL_DEFINITION('international standard',
'automotive_design',2009,#822);
#822=APPLICATION_CONTEXT(
'Core Data for Automotive Mechanical Design Process');
#823=PRODUCT_CONTEXT('part definition',#822,'mechanical');
#824=PRODUCT('Case_SwitchCap','Case_SwitchCap v1',$,(#823));
#825=PRESENTATION_STYLE_ASSIGNMENT((#827));
#826=PRESENTATION_STYLE_ASSIGNMENT((#828));
#827=SURFACE_STYLE_USAGE(.BOTH.,#829);
#828=SURFACE_STYLE_USAGE(.BOTH.,#830);
#829=SURFACE_SIDE_STYLE('',(#831));
#830=SURFACE_SIDE_STYLE('',(#832));
#831=SURFACE_STYLE_FILL_AREA(#833);
#832=SURFACE_STYLE_FILL_AREA(#834);
#833=FILL_AREA_STYLE('Stahl - satiniert',(#835));
#834=FILL_AREA_STYLE('Kunststoff - durchscheinend matt (Gelb)',(#836));
#835=FILL_AREA_STYLE_COLOUR('Stahl - satiniert',#837);
#836=FILL_AREA_STYLE_COLOUR('Kunststoff - durchscheinend matt (Gelb)',#838);
#837=COLOUR_RGB('Stahl - satiniert',0.627450980392157,0.627450980392157,
0.627450980392157);
#838=COLOUR_RGB('Kunststoff - durchscheinend matt (Gelb)',0.909803921568627,
0.67843137254902,0.137254901960784);
ENDSEC;
END-ISO-10303-21;
